<svg width="24" height="25" viewBox="0 0 24 25" fill="none" xmlns="http://www.w3.org/2000/svg">
<path d="M7.5152 1.99609C8.0627 6.78859 15.9352 6.78109 16.4852 1.99609H7.5152ZM7.5152 1.99609L0.325195 5.44109L2.4252 10.9011H5.2477V22.8261H15.7527C17.4102 22.8261 18.7527 21.4836 18.7527 19.8261V10.8986H21.5752L23.6752 5.43859L18.0302 2.73609" stroke="#171321" stroke-width="0.5" stroke-miterlimit="10"/>
</svg>
